<?xml version="1.0" encoding="utf-8"?>
<!-- Generator: Adobe Illustrator 21.1.0, SVG Export Plug-In . SVG Version: 6.00 Build 0)  -->
<svg version="1.1" id="Layer_1" xmlns="http://www.w3.org/2000/svg" xmlns:xlink="http://www.w3.org/1999/xlink" x="0px" y="0px"
	 viewBox="0 0 30 30" enable-background="new 0 0 30 30" xml:space="preserve">
<g>
	<path d="M23.125,28.75H1.25V1.25H22.5v5.625c0,0.345,0.28,0.625,0.625,0.625s0.625-0.28,0.625-0.625v-6.25
		C23.75,0.28,23.47,0,23.125,0h-22.5C0.28,0,0,0.28,0,0.625v28.75C0,29.72,0.28,30,0.625,30h22.5c0.345,0,0.625-0.28,0.625-0.625
		S23.47,28.75,23.125,28.75z"/>
	<path d="M29.817,28.933l-5.459-5.459c1.227-1.429,1.974-3.282,1.974-5.308c0-4.503-3.663-8.166-8.166-8.166S10,13.663,10,18.166
		s3.663,8.166,8.166,8.166c2.027,0,3.879-0.747,5.308-1.974l5.459,5.459C29.055,29.939,29.215,30,29.375,30s0.32-0.061,0.442-0.183
		C30.061,29.573,30.061,29.177,29.817,28.933z M11.25,18.166c0-3.813,3.102-6.916,6.916-6.916s6.916,3.102,6.916,6.916
		c0,1.844-0.73,3.517-1.91,4.759c-0.052,0.028-0.105,0.055-0.149,0.099s-0.071,0.097-0.099,0.149c-1.241,1.18-2.915,1.91-4.759,1.91
		C14.352,25.082,11.25,21.979,11.25,18.166z"/>
</g>
</svg>
